﻿Build started 12/25/2013 4:37:51 PM.
     1>Project "C:\Users\John\Documents\Visual Studio 2012\Projects\PeakTest\PeakTest\PeakTest.vcxproj" on node 2 (Build target(s)).
     1>ClCompile:
         C:\Program Files (x86)\Microsoft Visual Studio 11.0\VC\bin\CL.exe /c /ZI /nologo /W3 /WX- /sdl /Od /Oy- /D _MBCS /Gm /EHsc /RTC1 /MDd /GS /fp:precise /Zc:wchar_t /Zc:forScope /Fo"Debug\\" /Fd"Debug\vc110.pdb" /Gd /TP /analyze- /errorReport:prompt main.cpp
         main.cpp
     1>c:\users\john\documents\visual studio 2012\projects\peaktest\peaktest\find2dpeak.h(96): warning C4244: '=' : conversion from 'double' to 'int', possible loss of data
     1>c:\users\john\documents\visual studio 2012\projects\peaktest\peaktest\main.cpp(16): warning C4244: 'argument' : conversion from 'time_t' to 'unsigned int', possible loss of data
     1>c:\users\john\documents\visual studio 2012\projects\peaktest\peaktest\main.cpp(44): warning C4154: deletion of an array expression; conversion to pointer supplied
       Link:
         C:\Program Files (x86)\Microsoft Visual Studio 11.0\VC\bin\link.exe /ERRORREPORT:PROMPT /OUT:"C:\Users\John\Documents\Visual Studio 2012\Projects\PeakTest\Debug\PeakTest.exe" /INCREMENTAL /NOLOGO kernel32.lib user32.lib gdi32.lib winspool.lib comdlg32.lib advapi32.lib shell32.lib ole32.lib oleaut32.lib uuid.lib odbc32.lib odbccp32.lib /MANIFEST /MANIFESTUAC:"level='asInvoker' uiAccess='false'" /manifest:embed /DEBUG /PDB:"C:\Users\John\Documents\Visual Studio 2012\Projects\PeakTest\Debug\PeakTest.pdb" /TLBID:1 /DYNAMICBASE /NXCOMPAT /IMPLIB:"C:\Users\John\Documents\Visual Studio 2012\Projects\PeakTest\Debug\PeakTest.lib" /MACHINE:X86 Debug\main.obj
         PeakTest.vcxproj -> C:\Users\John\Documents\Visual Studio 2012\Projects\PeakTest\Debug\PeakTest.exe
     1>Done Building Project "C:\Users\John\Documents\Visual Studio 2012\Projects\PeakTest\PeakTest\PeakTest.vcxproj" (Build target(s)).

Build succeeded.

Time Elapsed 00:00:03.58
